[
  {
    "id": 1,
    "type": "settings",
    "name": "general",
    "title": "Общие настройки устройства",
    "params": [
      {
        "id": 1,
        "key": "serial_number",
        "title": "Серийный номер",
        "type": "uint32"
      },
      {
        "id": 2,
        "key": "log_level",
        "title": "Уровень логгирования",
        "type": "uint8"
      },
      {
        "id": 3,
        "key": "movement_period",
        "title": "Период передачи в движении, минут",
        "type": "uint16"
      },
      {
        "id": 4,
        "key": "stopped_period",
        "title": "Период передачи на остановке, минут",
        "type": "uint16"
      }
    ]
  },
  {
    "id": 2,
    "type": "settings",
    "name": "mobile_network",
    "title": "Настройки мобильной сети",
    "params": [
      {
        "id": 21,
        "key": "reg_1",
        "title": "Строка регистрации 1",
        "type": "char"
      },
      {
        "id": 22,
        "key": "addr_data_serv",
        "title": "Адрес сервера данных",
        "type": "char"
      },
      {
        "id": 23,
        "key": "port_data_serv",
        "title": "Порт сервера данных",
        "type": "char"
      },
      {
        "id": 24,
        "key": "reg_2",
        "title": "Строка регистрации 2",
        "type": "char"
      },
      {
        "id": 25,
        "key": "addr_help_serv",
        "title": "Адрес служебного сервера",
        "type": "char"
      },
      {
        "id": 26,
        "key": "port_help_serv",
        "title": "Порт служебного сервера",
        "type": "char"
      },
      {
        "id": 27,
        "key": "conn_timeout",
        "title": "Таймаут подключения, cекунд",
        "type": "uint16"
      }
    ]
  },
  {
    "id": 3,
    "type": "settings",
    "name": "gps",
    "title": "Настройки GPS",
    "params": [
      {
        "id": 41,
        "key": "gps_search_time",
        "title": "Максимальное время поиска, секунд",
        "type": "uint16"
      },
      {
        "id": 42,
        "key": "gps_sattelite",
        "title": "Достаточное количество спутников",
        "type": "uint8"
      },
      {
        "id": 43,
        "key": "gps_fixes",
        "title": "Достаточное количество фиксов",
        "type": "uint16"
      }
    ]
  }
]