module proxy

go 1.20

require (
	github.com/golang-jwt/jwt v3.2.2+incompatible // indirect
	github.com/golang-jwt/jwt/v5 v5.0.0 // indirect
	github.com/labstack/echo-jwt/v4 v4.2.0 // indirect
	github.com/labstack/echo/v4 v4.11.1 // indirect
	github.com/labstack/gommon v0.4.0 // indirect
	github.com/mattn/go-colorable v0.1.13 // indirect
	github.com/mattn/go-isatty v0.0.19 // indirect
	github.com/valyala/bytebufferpool v1.0.0 // indirect
	github.com/valyala/fasttemplate v1.2.2 // indirect
	golang.org/x/crypto v0.11.0 // indirect
	golang.org/x/net v0.12.0 // indirect
	golang.org/x/sys v0.10.0 // indirect
	golang.org/x/text v0.11.0 // indirect
	golang.org/x/time v0.3.0 // indirect
)
