[
  {"path": "/api",      "backend": "http://backend:8000",  "role":  "*"},
  {"path": "/api/*",    "backend": "http://backend:8000",  "role":  "*"},
  {"path": "/api/*/*",  "backend": "http://backend:8000",  "role":  "*"},
  {"path": "/api/*/*/*",  "backend": "http://backend:8000",  "role":  "*"},
  {"path": "/",         "backend": "http://frontend:8000", "role":  "*"},
  {"path": "/*",        "backend": "http://frontend:8000", "role":  "*"},
  {"path": "/*/*",      "backend": "http://frontend:8000", "role":  "*"}
]