module "172.25.78.108/SShlykov/egts"

go 1.12

require (
	github.com/go-redis/redis/v8 v8.11.5
	github.com/go-sql-driver/mysql v1.6.0
	github.com/golang/protobuf v1.5.2
	github.com/kr/pretty v0.1.0 // indirect
	github.com/lib/pq v1.1.1
	github.com/nats-io/nats-server/v2 v2.2.0 // indirect
	github.com/nats-io/nats.go v1.10.1-0.20210228004050-ed743748acac
	github.com/sirupsen/logrus v1.8.1
	github.com/streadway/amqp v0.0.0-20190404075320-75d898a42a94
	github.com/stretchr/testify v1.5.1
	github.com/tarantool/go-tarantool v0.0.0-20190330192518-aaa93c4bdc35
	google.golang.org/appengine v1.6.5 // indirect
	gopkg.in/check.v1 v1.0.0-20180628173108-788fd7840127 // indirect
	gopkg.in/vmihailenco/msgpack.v2 v2.9.1 // indirect
	gopkg.in/yaml.v2 v2.4.0
)
